-2.572090797619404068e+00 -9.970597783619760124e-01
-2.404651533730099544e+00 -1.000000000000000000e+00
-2.376748312747355651e+00 -9.994121604945225279e-01
-2.348835122768190953e+00 -9.994121604945225279e-01
-2.320931901785447504e+00 -9.994121604945225279e-01
-2.293028680802703612e+00 -9.988232968784084287e-01
-2.265115490823538913e+00 -9.988232968784084287e-01
-2.237212269840795464e+00 -9.988232968784084287e-01
-2.209299079861630322e+00 -9.988232968784084287e-01
-2.181395858878886873e+00 -9.982354573729309566e-01
-2.153492637896142980e+00 -9.982354573729309566e-01
-2.125579447916978282e+00 -9.982354573729309566e-01
-2.097676226934234833e+00 -9.982354573729309566e-01
-2.069773005951490941e+00 -9.982354573729309566e-01
-2.041859815972326242e+00 -9.982354573729309566e-01
-2.013956594989582793e+00 -9.982354573729309566e-01
-1.986043405010417873e+00 -9.982354573729309566e-01
-1.958140184027673980e+00 -9.982354573729309566e-01
-1.930236963044930310e+00 -9.982354573729309566e-01
-1.902323773065765611e+00 -9.982354573729309566e-01
-1.874420552083021940e+00 -9.982354573729309566e-01
-1.846517331100278270e+00 -9.982354573729309566e-01
-1.818604141121113349e+00 -9.982354573729309566e-01
-1.790700920138369900e+00 -9.982354573729309566e-01
-1.762787730159204980e+00 -9.982354573729309566e-01
-1.734884509176461309e+00 -9.982354573729309566e-01
-1.706981288193717639e+00 -9.982354573729309566e-01
-1.679068098214552940e+00 -9.982354573729309566e-01
-1.651164877231809269e+00 -9.982354573729309566e-01
-1.623251687252644349e+00 -9.982354573729309566e-01
-1.595348466269900678e+00 -9.982354573729309566e-01
-1.567445245287157007e+00 -9.982354573729309566e-01
-1.539532055307992087e+00 -9.982354573729309566e-01
-1.511628834325248416e+00 -9.982354573729309566e-01
-1.483725613342504968e+00 -9.982354573729309566e-01
-1.455812423363340047e+00 -9.982354573729309566e-01
-1.427909202380596376e+00 -9.982354573729309566e-01
-1.399996012401431678e+00 -9.982354573729309566e-01
-1.372092791418688007e+00 -9.982354573729309566e-01
-1.344189570435944336e+00 -9.976476178674534845e-01
-1.316276380456779638e+00 -9.976476178674534845e-01
-1.288373159474035967e+00 -9.976476178674534845e-01
-1.260469938491292075e+00 -9.976476178674534845e-01
-1.232556748512127376e+00 -9.970597783619760124e-01
-1.204653527529383705e+00 -9.970597783619760124e-01
-1.176740337550218785e+00 -9.970597783619760124e-01
-1.148837116567475114e+00 -9.970597783619760124e-01
-1.120933895584731443e+00 -9.964709147458619132e-01
-1.093020705605566745e+00 -9.964709147458619132e-01
-1.065117484622823074e+00 -9.964709147458619132e-01
-1.037214263640079404e+00 -9.958830752403844411e-01
-1.009301073660914705e+00 -9.958830752403844411e-01
-9.813958588788866955e-01 -9.958830752403844411e-01
-9.534886502975745692e-01 -9.952952357349069690e-01
-9.255814417162624430e-01 -9.952952357349069690e-01
-8.976752300345924862e-01 -9.952952357349069690e-01
-8.697680214532803600e-01 -9.952952357349069690e-01
-8.418608128719682338e-01 -9.947073962294294969e-01
-7.581401840276740245e-01 -9.947073962294294969e-01
-7.302329754463618983e-01 -9.941195567239521358e-01
-7.023257668650496610e-01 -9.941195567239521358e-01
-6.744185582837376458e-01 -9.941195567239521358e-01
-6.465123466020675780e-01 -9.935306931078379256e-01
-6.186051380207554518e-01 -9.935306931078379256e-01
-5.906979294394434366e-01 -9.935306931078379256e-01
-5.627907208581311993e-01 -9.935306931078379256e-01
-5.348835122768190731e-01 -9.929428536023603424e-01
-5.069773005951491163e-01 -9.929428536023603424e-01
-4.790700920138369900e-01 -9.929428536023603424e-01
-4.511628834325249193e-01 -9.929428536023603424e-01
-4.232556748512127376e-01 -9.929428536023603424e-01
-3.953494631695427808e-01 -9.929428536023603424e-01
-3.674422545882305990e-01 -9.929428536023603424e-01
-3.395350460069184728e-01 -9.929428536023603424e-01
-3.116278374256064021e-01 -9.929428536023603424e-01
-2.837206288442942759e-01 -9.929428536023603424e-01
-2.558144171626242636e-01 -9.929428536023603424e-01
-2.279072085813121373e-01 -9.929428536023603424e-01
-2.000000000000000111e-01 -9.929428536023603424e-01
-1.720927914186878849e-01 -9.929428536023603424e-01
-1.441865797370179003e-01 -9.929428536023603424e-01
-1.162793711557057602e-01 -9.929428536023603424e-01
-8.837216257439364786e-02 -9.929428536023603424e-01
-6.046515337300994303e-02 -9.929428536023603424e-01
-3.255814417162624513e-02 -9.929428536023603424e-01
-4.651164877231809061e-03 -9.929428536023603424e-01
2.325577454117694343e-02 -9.929428536023603424e-01
5.116278374256063438e-02 -9.929428536023603424e-01
7.906979294394433921e-02 -9.929428536023603424e-01
1.069763036955069802e-01 -9.929428536023603424e-01
1.348835122768191064e-01 -9.929428536023603424e-01
1.627907208581312049e-01 -9.929428536023603424e-01
1.906979294394433311e-01 -9.929428536023603424e-01
2.186051380207554573e-01 -9.929428536023603424e-01
2.465113497024254696e-01 -9.929428536023603424e-01
2.744185582837376236e-01 -9.929428536023603424e-01
3.023257668650496943e-01 -9.929428536023603424e-01
3.302329754463618205e-01 -9.923550140968829814e-01
3.581391871280318329e-01 -9.923550140968829814e-01
3.860463957093439591e-01 -9.923550140968829814e-01
4.139536042906560853e-01 -9.917671745914055093e-01
4.418608128719682115e-01 -9.917671745914055093e-01
4.697680214532803378e-01 -9.917671745914055093e-01
4.976742331349503501e-01 -9.917671745914055093e-01
5.255814417162624208e-01 -9.911793350859280372e-01
5.534886502975745470e-01 -9.911793350859280372e-01
5.813958588788866733e-01 -9.911793350859280372e-01
6.093030674601987995e-01 -9.905904714698138269e-01
6.372092791418687563e-01 -9.905904714698138269e-01
6.651164877231809935e-01 -9.905904714698138269e-01
6.930236963044930087e-01 -9.900026319643364658e-01
7.209309048858051350e-01 -9.876502498317899503e-01
7.488371165674752028e-01 -9.876502498317899503e-01
7.767443251487873290e-01 -9.841221886882883796e-01
8.046515337300994553e-01 -9.823576460612193362e-01
8.325587423114115815e-01 -9.688322168820542313e-01
8.604659508927235967e-01 -9.117902785273699351e-01
8.883721625743936645e-01 -8.194646564057609384e-01
9.162793711557057907e-01 -6.206991193672635188e-01
9.441865797370180280e-01 -4.578061297118050099e-01
9.720937883183300432e-01 -1.084973531860593532e-01
1.000000000000000000e+00 6.380506258852181034e-02
1.027903220982743671e+00 2.802120318662264520e-01
1.055816410961908369e+00 3.954726116971869487e-01
1.083719631944652040e+00 4.401647998836610842e-01
1.111632821923816961e+00 5.113210310336249176e-01
1.139536042906560853e+00 5.460158511844352969e-01
1.167439263889304302e+00 5.718910305318105625e-01
1.195352453868469222e+00 5.871810023380448218e-01
1.223255674851212893e+00 5.977662098791858281e-01
1.251158895833956564e+00 6.054101716716659976e-01
1.279072085813121262e+00 6.130551575747833493e-01
1.306975306795864933e+00 6.177599218398763803e-01
1.334888496775029632e+00 6.207001434779002569e-01
1.362791717757773302e+00 6.212879829833775069e-01
1.390694938740516973e+00 6.212879829833775069e-01
1.418608128719681893e+00 6.224646861049696334e-01
1.446511349702425342e+00 6.259927472484709821e-01
1.474414570685169235e+00 6.336377331515881117e-01
1.502327760664333933e+00 6.418705585601824914e-01
1.530230981647077826e+00 6.501033839687768712e-01
1.558144171626242525e+00 6.595118883883264171e-01
1.586047392608986195e+00 6.665690347859660747e-01
1.613950613591729866e+00 6.759775392055156207e-01
1.641863803570894564e+00 6.836225251086325283e-01
1.669767024553638235e+00 6.924442141333413403e-01
1.697670245536381906e+00 7.012648790474134142e-01
1.725583435515546826e+00 7.094977044560080159e-01
1.753486656498290275e+00 7.177305298646023957e-01
1.781399846477455196e+00 7.253755157677195253e-01
1.809303067460198866e+00 7.341961806817915992e-01
1.837206288442942537e+00 7.424290060903862010e-01
1.865119478422107235e+00 7.512496710044582748e-01
1.893022699404851128e+00 7.600713600291668648e-01
1.920935889384015605e+00 7.683041854377612445e-01
1.948839110366759497e+00 7.824174541224038215e-01
1.976742331349503168e+00 8.012354870721394295e-01
2.004655521328667866e+00 8.206413595273527317e-01
2.032558742311411315e+00 8.406350714880432839e-01
2.060461963294155652e+00 8.600419680538928802e-01
2.088375153273319906e+00 8.794478405091059603e-01
2.116278374256063799e+00 8.994415524697965125e-01
2.144191564235228942e+00 9.188474249250095927e-01
2.172094785217972390e+00 9.353130757421985741e-01
2.199998006200715839e+00 9.458982832833398025e-01
2.227911196179880982e+00 9.511908870539103056e-01
2.255814417162624430e+00 9.570713303299582808e-01
2.451166871031093653e+00 9.929438777129973026e-01
2.255814417162624430e+00 9.947073962294297189e-01
2.227911196179880982e+00 9.952962598455437071e-01
2.199998006200715839e+00 9.952962598455437071e-01
2.172094785217972390e+00 9.952962598455437071e-01
2.144191564235228942e+00 9.952962598455437071e-01
2.116278374256063799e+00 9.952962598455437071e-01
2.088375153273319906e+00 9.952962598455437071e-01
2.060461963294155652e+00 9.952962598455437071e-01
2.032558742311411315e+00 9.958840993510211792e-01
2.004655521328667866e+00 9.958840993510211792e-01
1.976742331349503168e+00 9.958840993510211792e-01
1.948839110366759497e+00 9.958840993510211792e-01
1.920935889384015605e+00 9.958840993510211792e-01
1.893022699404851128e+00 9.958840993510211792e-01
1.865119478422107235e+00 9.964719388564988733e-01
1.837206288442942537e+00 9.958840993510211792e-01
1.809303067460198866e+00 9.964719388564988733e-01
1.781399846477455196e+00 9.964719388564988733e-01
1.753486656498290275e+00 9.964719388564988733e-01
1.725583435515546826e+00 9.964719388564988733e-01
1.697670245536381906e+00 9.964719388564988733e-01
1.669767024553638235e+00 9.964719388564988733e-01
1.641863803570894564e+00 9.970597783619761234e-01
1.613950613591729866e+00 9.970597783619761234e-01
1.586047392608986195e+00 9.970597783619761234e-01
1.558144171626242525e+00 9.970597783619761234e-01
1.530230981647077826e+00 9.970597783619761234e-01
1.502327760664333933e+00 9.970597783619761234e-01
1.474414570685169235e+00 9.970597783619761234e-01
1.446511349702425342e+00 9.970597783619761234e-01
1.418608128719681893e+00 9.970597783619761234e-01
1.390694938740516973e+00 9.970597783619761234e-01
1.362791717757773302e+00 9.970597783619761234e-01
1.334888496775029632e+00 9.970597783619761234e-01
1.306975306795864933e+00 9.970597783619761234e-01
1.279072085813121262e+00 9.970597783619761234e-01
1.251158895833956564e+00 9.970597783619761234e-01
1.223255674851212893e+00 9.970597783619761234e-01
1.195352453868469222e+00 9.970597783619761234e-01
1.167439263889304302e+00 9.970597783619761234e-01
1.139536042906560853e+00 9.970597783619761234e-01
1.111632821923816961e+00 9.970597783619761234e-01
1.083719631944652040e+00 9.970597783619761234e-01
1.055816410961908369e+00 9.970597783619761234e-01
1.027903220982743671e+00 9.970597783619761234e-01
1.000000000000000000e+00 9.970597783619761234e-01
9.720937883183300432e-01 9.970597783619761234e-01
9.441865797370180280e-01 9.970597783619761234e-01
9.162793711557057907e-01 9.970597783619761234e-01
8.883721625743936645e-01 9.970597783619761234e-01
8.604659508927235967e-01 9.970597783619761234e-01
8.325587423114115815e-01 9.970597783619761234e-01
8.046515337300994553e-01 9.970597783619761234e-01
7.767443251487873290e-01 9.970597783619761234e-01
7.488371165674752028e-01 9.970597783619761234e-01
7.209309048858051350e-01 9.970597783619761234e-01
6.930236963044930087e-01 9.970597783619761234e-01
6.651164877231809935e-01 9.970597783619761234e-01
6.372092791418687563e-01 9.970597783619761234e-01
6.093030674601987995e-01 9.970597783619761234e-01
5.813958588788866733e-01 9.970597783619761234e-01
5.534886502975745470e-01 9.970597783619761234e-01
5.255814417162624208e-01 9.970597783619761234e-01
4.976742331349503501e-01 9.970597783619761234e-01
4.697680214532803378e-01 9.970597783619761234e-01
4.418608128719682115e-01 9.970597783619761234e-01
4.139536042906560853e-01 9.970597783619761234e-01
3.860463957093439591e-01 9.970597783619761234e-01
3.581391871280318329e-01 9.970597783619761234e-01
3.302329754463618205e-01 9.970597783619761234e-01
3.023257668650496943e-01 9.970597783619761234e-01
2.744185582837376236e-01 9.970597783619761234e-01
2.465113497024254696e-01 9.970597783619761234e-01
2.186051380207554573e-01 9.970597783619761234e-01
1.906979294394433311e-01 9.970597783619761234e-01
1.627907208581312049e-01 9.970597783619761234e-01
1.348835122768191064e-01 9.970597783619761234e-01
1.069763036955069802e-01 9.970597783619761234e-01
7.906979294394433921e-02 9.970597783619761234e-01
5.116278374256063438e-02 9.970597783619761234e-01
2.325577454117694343e-02 9.970597783619761234e-01
-4.651164877231809061e-03 9.976486419780903336e-01
-3.255814417162624513e-02 9.976486419780903336e-01
-6.046515337300994303e-02 9.976486419780903336e-01
-8.837216257439364786e-02 9.976486419780903336e-01
-1.162793711557057602e-01 9.976486419780903336e-01
-1.441865797370179003e-01 9.976486419780903336e-01
-1.720927914186878849e-01 9.976486419780903336e-01
-2.000000000000000111e-01 9.976486419780903336e-01
-2.279072085813121373e-01 9.976486419780903336e-01
-2.558144171626242636e-01 9.982364814835675837e-01
-2.837206288442942759e-01 9.982364814835675837e-01
-3.116278374256064021e-01 9.982364814835675837e-01
-3.395350460069184728e-01 9.982364814835675837e-01
-3.674422545882305990e-01 9.982364814835675837e-01
-3.953494631695427808e-01 9.982364814835675837e-01
-4.232556748512127376e-01 9.988243209890454999e-01
-4.511628834325249193e-01 9.988243209890454999e-01
-4.790700920138369900e-01 9.988243209890454999e-01
-5.069773005951491163e-01 9.988243209890454999e-01
-5.348835122768190731e-01 9.988243209890454999e-01
-5.627907208581311993e-01 9.988243209890454999e-01
-5.906979294394434366e-01 9.994121604945227499e-01
-6.186051380207554518e-01 9.994121604945227499e-01
-6.465123466020675780e-01 9.994121604945227499e-01
-6.744185582837376458e-01 9.994121604945227499e-01
-7.023257668650496610e-01 9.994121604945227499e-01
-7.302329754463618983e-01 9.994121604945227499e-01
-7.581401840276740245e-01 9.994121604945227499e-01
-7.860463957093439813e-01 1.000000000000000000e+00
-8.697680214532803600e-01 9.782417454122405154e-01
-8.976752300345924862e-01 9.482506654158864290e-01
-9.255814417162624430e-01 7.283157374057434019e-01
-9.534886502975745692e-01 5.536608370875524265e-01
-9.813958588788866955e-01 1.279042497519093935e-01
-1.009301073660914705e+00 -1.767123385873622388e-01
-1.037214263640079404e+00 -3.196116162821301954e-01
-1.065117484622823074e+00 -4.142896205362858186e-01
-1.093020705605566745e+00 -4.901495918407057228e-01
-1.120933895584731443e+00 -5.607169593745552350e-01
-1.148837116567475114e+00 -5.924725819979783648e-01
-1.176740337550218785e+00 -6.018810864175279107e-01
-1.204653527529383705e+00 -6.101139118261225125e-01
-1.232556748512127376e+00 -6.201112798617860467e-01
-1.260469938491292075e+00 -6.306964874029270529e-01
-1.288373159474035967e+00 -6.406938554385908091e-01
-1.316276380456779638e+00 -6.489266808471851888e-01
-1.344189570435944336e+00 -6.542192846177559140e-01
-1.372092791418688007e+00 -6.595118883883264171e-01
-1.399996012401431678e+00 -6.648044921588969203e-01
-1.427909202380596376e+00 -6.700970959294674234e-01
-1.455812423363340047e+00 -6.753896997000380376e-01
-1.483725613342504968e+00 -6.824458219870408460e-01
-1.511628834325248416e+00 -6.883262652630889322e-01
-1.539532055307992087e+00 -6.947955721552511177e-01
-1.567445245287157007e+00 -7.018516944422539261e-01
-1.595348466269900678e+00 -7.071442982128246513e-01
-1.623251687252644349e+00 -7.136136051049866147e-01
-1.651164877231809269e+00 -7.200818878865122841e-01
-1.679068098214552940e+00 -7.259623311625601483e-01
-1.706981288193717639e+00 -7.330194775601996948e-01
-1.734884509176461309e+00 -7.388999208362477811e-01
-1.762787730159204980e+00 -7.453692277284099665e-01
-1.790700920138369900e+00 -7.512496710044580528e-01
-1.818604141121113349e+00 -7.583057932914608612e-01
-1.846517331100278270e+00 -7.641872606781456856e-01
-1.874420552083021940e+00 -7.706555434596711329e-01
-1.902323773065765611e+00 -7.765359867357191082e-01
-1.930236963044930310e+00 -7.830042695172445555e-01
-1.958140184027673980e+00 -7.894735764094067410e-01
-1.986043405010417873e+00 -7.965296986964095494e-01
-2.013956594989582793e+00 -8.024111660830943737e-01
-2.041859815972326242e+00 -8.082916093591422380e-01
-2.069773005951490941e+00 -8.153477316461452684e-01
-2.097676226934234833e+00 -8.282853213198329012e-01
-2.125579447916978282e+00 -8.423985900044753672e-01
-2.153492637896142980e+00 -8.565128827997546823e-01
-2.181395858878886873e+00 -8.712139909898746204e-01
-2.209299079861630322e+00 -8.865039627961088797e-01
-2.237212269840795464e+00 -9.006172314807513457e-01
-2.265115490823538913e+00 -9.147305001653939227e-01
-2.293028680802703612e+00 -9.282559293445589166e-01
-2.320931901785447504e+00 -9.376654578747450897e-01
-2.348835122768190953e+00 -9.435459011507931759e-01
-2.376748312747355651e+00 -9.500141839323186232e-01
-2.404651533730099544e+00 -9.558946272083665985e-01
-2.432554754712842993e+00 -9.623639341005287839e-01
-2.600003987598568322e+00 -9.994121604945225279e-01
